%YAML 1.1
%TAG !u! tag:unity3d.com,2011:
--- !u!1045 &1
EditorBuildSettings:
  m_ObjectHideFlags: 0
  serializedVersion: 2
  m_Scenes:
  - enabled: 0
    path: 
    guid: 00000000000000000000000000000000
  - enabled: 1
    path: Assets/Scenes/MainMenu.unity
    guid: b211b7450bb9b483b89c544914493fa6
  - enabled: 1
    path: Assets/Scenes/Planet.unity
    guid: 9e2389240027e4c8a916d4d0491a20b4
  - enabled: 1
    path: Assets/Scenes/cave.unity
    guid: eddac4666076040dc902c95bb9ec44f5
  m_configObjects: {}
